INDEX VERSION 1.3+E:\JavaApplication\.metadata\.plugins\org.eclipse.wst.jsdt.core\indexes
3511244871.index
184604009.index
2091405518.index
455838953.index
1766626400.index
729147549.index
3241398630.index
2313145584.index
3151419392.index
292660814.index
2077559258.index
